"","Variable","Percentage","Margin.of.Error","Weighted.n"
"1","Radio","0.1824","0.01740","1,300"
"2","Television","0.3772","0.02580","2,689"
"3","Newspaper","0.0335","0.00774","239"
"4","Pamphlets / brochures","0.0655","0.01281","467"
"5","Posters / Billboards","0.1065","0.01999","759"
"6","Internet","0.1108","0.01595","790"
"7","Social media","0.1067","0.02134","761"
"8","Mosque","0.0598","0.01112","427"
"9","Elders / Shuras","0.0821","0.01267","586"
"10","Friends and family","0.1528","0.01934","1,089"
