"","Variable","Province","proportion","proportion_se","Weighted n"
"1","USAID","Kabul",0.46647702555984,0.0245862590505639,1200.8381973827
"2","USAID","Ghazni",0.621981129728584,0.028897946059701,419.153041515141
"3","USAID","Nangarhar",0.664308130222651,0.0345064515885739,559.130812119819
"4","USAID","Takhar",0.32952736456717,0.0288020574825976,178.161373163672
"5","USAID","Balkh",0.407931712515841,0.0342705028253785,304.502125697834
"6","USAID","Herat",0.531526128076174,0.0243446471452757,562.779281042462
"7","USAID","Kandahar",0.42923521651896,0.0232627975616369,297.136136628138
"8","GIZ","Kabul",0.72692723421032,0.0556269848238231,289.106360724427
"9","GIZ","Ghazni",0.712282133713466,0.07330808916231,93.2101393358916
"10","GIZ","Nangarhar",0.737117389202131,0.052197099113766,143.64349640609
"11","GIZ","Takhar",0.584612508207523,0.0407735170342373,162.761209728111
"12","GIZ","Balkh",0.662404004337675,0.0356259936359895,201.403717392467
"13","GIZ","Herat",0.651859834723513,0.0538337406393478,107.468614717891
"14","GIZ","Kandahar",0.483999751967288,0.0372196398647772,83.2128997946248
"15","PIC","Kabul",0.428757425127284,0.0721192304695455,70.4432192102994
"16","PIC","Ghazni",0.547945872890513,0.10620504350051,40.3134093448014
"17","PIC","Nangarhar",0.700966644731048,0.055549314253678,95.5662780854603
"18","PIC","Takhar",0.395674468091728,0.0574025832640635,24.5788959571411
"19","PIC","Balkh",0.608641249732028,0.0534778063341396,58.9112419523168
"20","PIC","Herat",0.397000053558515,0.0422155071277467,61.3695847658769
"21","PIC","Kandahar",0.516041600958488,0.0388383656302646,96.053923489884
"22","DFID","Kabul",0.532459351147773,0.0575679704629917,232.876590094258
"23","DFID","Ghazni",0.558742372308768,0.0940191100164626,35.6185548839243
"24","DFID","Nangarhar",0.631113687166167,0.0636891798924229,66.5720436938497
"25","DFID","Takhar",0.280816030799768,0.0495350719224687,14.109343376013
"26","DFID","Balkh",0.350024522659394,0.0700507235207093,18.8937922676052
"27","DFID","Herat",0.403106076861839,0.0611380091171607,38.4331988113027
"28","DFID","Kandahar",0.447685344552761,0.0379072120661577,74.6688997720171
"29","NRC","Kabul",0.497124937042076,0.0476846979894453,160.437567439212
"30","NRC","Ghazni",0.567665705786386,0.0647731979038697,67.4603009819975
"31","NRC","Nangarhar",0.713614913263915,0.0425346596170163,129.12820220228
"32","NRC","Takhar",0.273044799898829,0.0355951354453946,23.6080651519354
"33","NRC","Balkh",0.316662648071459,0.0423300255165302,37.2626713498188
"34","NRC","Herat",0.61372003608575,0.0401343072435606,217.376219556492
"35","NRC","Kandahar",0.500884176121424,0.0315870863071063,140.919561548524
"36","JICA","Kabul",0.623691684907775,0.0680251771411012,303.637272075256
"37","JICA","Ghazni",0.751579305470019,0.0445622977676654,106.018851565152
"38","JICA","Nangarhar",0.689919422232924,0.0565654596848053,81.1433286828508
"39","JICA","Takhar",0.340601220255865,0.0447866967386863,31.5792715414405
"40","JICA","Balkh",0.494248130184839,0.0385849092330706,56.0609558421349
"41","JICA","Herat",0.559491200020233,0.0496643528990113,101.171712589882
"42","JICA","Kandahar",0.408198322434763,0.0352554451290363,79.3537622794112
"43","CIDA","Kabul",0.70675329037434,0.0601095218873389,254.996276326799
"44","CIDA","Ghazni",0.554904843384045,0.0736114815876417,57.4378979969412
"45","CIDA","Nangarhar",0.653248568931861,0.0689537043058594,62.2219211897216
"46","CIDA","Takhar",0.359628174562538,0.0516176355171966,27.2517644592788
"47","CIDA","Balkh",0.300575614634155,0.0744708341428128,17.8037882710772
"48","CIDA","Herat",0.563049030522722,0.0695351010009996,64.2427333889082
"49","CIDA","Kandahar",0.493784582912521,0.0319727307252753,71.2352106141544
"50","Aga Khan Foundation","Kabul",0.590381144005006,0.0625705870652108,295.498727658883
"51","Aga Khan Foundation","Ghazni",0.648273445249962,0.0681101652129036,36.096799287781
"52","Aga Khan Foundation","Nangarhar",0.558528434322885,0.0756113841357468,66.8175499466513
"53","Aga Khan Foundation","Takhar",0.611488739163984,0.036092935673197,224.43986219546
"54","Aga Khan Foundation","Balkh",0.444325271149237,0.0485278158527856,73.585635097921
"55","Aga Khan Foundation","Herat",0.527017811796605,0.0488422836792327,80.4178957008677
"56","Aga Khan Foundation","Kandahar",0.42785917131131,0.0466180174315767,46.3170539170296
"57","SIDA","Kabul",0.565862643547066,0.101498139173384,89.702062268169
"58","SIDA","Ghazni",0.684785886191402,0.0463409970705156,160.094991277452
"59","SIDA","Nangarhar",0.578050920845226,0.0821432931179532,63.3382779012825
"60","SIDA","Takhar",0.465044640531473,0.048846186717526,106.659457336166
"61","SIDA","Balkh",0.591449525610316,0.0365121076321627,71.5647519755002
"62","SIDA","Herat",0.469433674734999,0.0738970760123278,36.1131537935801
"63","SIDA","Kandahar",0.461760589939931,0.0551349880898029,39.4315225339015
"64","EU","Kabul",0.644452567676479,0.0429047945038635,523.128877093326
"65","EU","Ghazni",0.671049662182262,0.0474998546841072,66.8248490720121
"66","EU","Nangarhar",0.638430446427549,0.0629511494670973,111.865651816167
"67","EU","Takhar",0.371283083163923,0.0567024830051301,45.139759321662
"68","EU","Balkh",0.57665686056252,0.0477650165730457,71.8295293879252
"69","EU","Herat",0.635618931001492,0.0440714910837978,124.22016640024
"70","EU","Kandahar",0.437019165362578,0.0412669518789764,49.5811508217258
"71","IOM","Kabul",0.446617118688042,0.0569150476777283,295.490366886427
"72","IOM","Ghazni",0.508304384644312,0.0768589861991404,62.6640161810748
"73","IOM","Nangarhar",0.6446388845962,0.0510937645186605,167.406437742965
"74","IOM","Takhar",0.314503283246788,0.0504672582922558,28.4400203819342
"75","IOM","Balkh",0.495181059542256,0.0421730258017968,92.9094179480811
"76","IOM","Herat",0.649120248584536,0.03371613719696,261.229356437047
"77","IOM","Kandahar",0.48464283416038,0.0440704861501209,79.2316840109885
