"","Variable","locality","proportion","proportion_se","Weighted n"
"1","USAID","Rural",0.531984580308964,0.0132412195058051,1873.49061119564
"2","USAID","Urban",0.468015419691036,0.0132412195058051,1648.21035635413
"3","GIZ","Rural",0.531629876770666,0.0315955691034535,574.588993499782
"4","GIZ","Urban",0.468370123229334,0.0315955691034535,506.217444599722
"5","PIC","Rural",0.603823098609326,0.0428060431201604,270.05176112654
"6","PIC","Urban",0.396176901390674,0.0428060431201604,177.18479167924
"7","DFID","Rural",0.392892125422468,0.0468513763874709,189.048855927455
"8","DFID","Urban",0.607107874577532,0.0468513763874709,292.123566971515
"9","NRC","Rural",0.544377709594639,0.0290872055821234,422.541943385124
"10","NRC","Urban",0.455622290405361,0.0290872055821234,353.650644845136
"11","JICA","Rural",0.475655026344951,0.039463487624522,361.005590594808
"12","JICA","Urban",0.524344973655049,0.039463487624522,397.959563981319
"13","CIDA","Rural",0.40964467985142,0.0446129010026443,227.430462772814
"14","CIDA","Urban",0.59035532014858,0.0446129010026443,327.759129474067
"15","Aga Khan Foundation","Rural",0.491193021758541,0.0378761426263496,404.337090589205
"16","Aga Khan Foundation","Urban",0.508806978241459,0.0378761426263496,418.836433215389
"17","SIDA","Rural",0.698368962841353,0.0417220107135972,395.908310116775
"18","SIDA","Urban",0.301631037158647,0.0417220107135972,170.995906969276
"19","EU","Rural",0.383458787894264,0.0317369685588852,380.617352107289
"20","EU","Urban",0.616541212105736,0.0317369685588852,611.972631805769
"21","IOM","Rural",0.531255113574164,0.033258350309006,524.546051902768
"22","IOM","Urban",0.468744886425836,0.033258350309006,462.82524768575
